<svg id="fb-icon" xmlns="http://www.w3.org/2000/svg" width="26" height="26" viewBox="0 0 26 26">
  <path id="Path_179" data-name="Path 179" d="M22.75,0H3.25A3.253,3.253,0,0,0,0,3.25v19.5A3.253,3.253,0,0,0,3.25,26h19.5A3.253,3.253,0,0,0,26,22.75V3.25A3.253,3.253,0,0,0,22.75,0Z" fill="#5d2468"/>
  <path id="Path_180" data-name="Path 180" d="M208.79,107.193h-5.6v-4.477c0-1.236,1-1.119,2.239-1.119h2.239V96h-4.477a6.716,6.716,0,0,0-6.716,6.716v4.477H192v5.6h4.477v9.063h6.716V112.79h3.358Z" transform="translate(-185.499 -95.926)" fill="#fbf5eb"/>
</svg>
