<svg id="_005-instagram" data-name="005-instagram" xmlns="http://www.w3.org/2000/svg" width="20.974" height="20.978" viewBox="0 0 20.974 20.978">
  <path id="Path_537" data-name="Path 537" d="M21.369,6.168a7.665,7.665,0,0,0-.488-2.545A5.374,5.374,0,0,0,17.812.553,7.685,7.685,0,0,0,15.267.066C14.144.012,13.788,0,10.939,0s-3.2.012-4.323.061A7.667,7.667,0,0,0,4.071.549,5.118,5.118,0,0,0,2.211,1.762,5.165,5.165,0,0,0,1,3.619,7.686,7.686,0,0,0,.514,6.163C.461,7.286.449,7.643.449,10.491s.012,3.2.061,4.323A7.665,7.665,0,0,0,1,17.359a5.373,5.373,0,0,0,3.069,3.069,7.686,7.686,0,0,0,2.545.488c1.119.049,1.475.061,4.323.061s3.2-.012,4.323-.061a7.663,7.663,0,0,0,2.545-.488,5.366,5.366,0,0,0,3.07-3.069,7.691,7.691,0,0,0,.488-2.545c.049-1.119.061-1.475.061-4.323s0-3.2-.053-4.323ZM19.48,14.732a5.75,5.75,0,0,1-.361,1.947,3.48,3.48,0,0,1-1.992,1.992,5.77,5.77,0,0,1-1.947.36c-1.106.049-1.438.061-4.237.061s-3.135-.012-4.237-.061a5.747,5.747,0,0,1-1.947-.36,3.228,3.228,0,0,1-1.2-.783,3.261,3.261,0,0,1-.783-1.2,5.771,5.771,0,0,1-.36-1.947C2.362,13.63,2.35,13.3,2.35,10.5s.012-3.135.061-4.237a5.747,5.747,0,0,1,.36-1.947,3.188,3.188,0,0,1,.787-1.2,3.256,3.256,0,0,1,1.2-.783A5.774,5.774,0,0,1,6.71,1.967c1.106-.049,1.438-.061,4.237-.061s3.135.012,4.237.061a5.75,5.75,0,0,1,1.947.361,3.226,3.226,0,0,1,1.2.783,3.261,3.261,0,0,1,.783,1.2,5.773,5.773,0,0,1,.361,1.947c.049,1.106.061,1.438.061,4.237s-.012,3.127-.061,4.233Zm0,0" transform="translate(-0.449 0)" fill="#5c2367"/>
  <path id="Path_538" data-name="Path 538" d="M130.338,124.5a5.389,5.389,0,1,0,5.389,5.389A5.39,5.39,0,0,0,130.338,124.5Zm0,8.885a3.5,3.5,0,1,1,3.5-3.5A3.5,3.5,0,0,1,130.338,133.385Zm0,0" transform="translate(-119.847 -119.398)" fill="#5c2367"/>
  <path id="Path_539" data-name="Path 539" d="M364.966,89.86a1.258,1.258,0,1,1-1.258-1.258A1.258,1.258,0,0,1,364.966,89.86Zm0,0" transform="translate(-347.615 -84.971)" fill="#5c2367"/>
</svg>
