<svg xmlns="http://www.w3.org/2000/svg" width="140.628" height="134.469" viewBox="0 0 140.628 134.469">
  <g id="HU-icon-transparent" transform="matrix(-0.5, -0.866, 0.866, -0.5, 47.937, 140.19)" opacity="0.04">
    <circle id="Ellipse_4" data-name="Ellipse 4" cx="6.198" cy="6.198" r="6.198" transform="translate(79.347 3.849)" fill="#5e2568"/>
    <path id="Path_20" data-name="Path 20" d="M3.155,10.275A9.156,9.156,0,0,0,0,12.045,9.175,9.175,0,0,0,2.488,2.5,9.177,9.177,0,0,0,1.234,0,29.874,29.874,0,0,1,12.228,12.281,9.175,9.175,0,0,0,3.155,10.275Z" transform="translate(91.742 4.674)" fill="#5e2568"/>
    <path id="Path_21" data-name="Path 21" d="M0,2.161A9.136,9.136,0,0,0,3.8,1.77,9.152,9.152,0,0,0,6.956,0,9.2,9.2,0,0,0,4.028,6.589,13.088,13.088,0,0,0,0,2.161Z" transform="translate(84.524 16.966)" fill="#5e2568"/>
    <path id="Path_22" data-name="Path 22" d="M14.934,57.585a9.131,9.131,0,0,0-4.028.94,12.954,12.954,0,0,0,2.123-7.116A13.028,13.028,0,0,0,0,38.381V17.029A13.028,13.028,0,0,0,13.028,4c0-.347-.025-.687-.052-1.027A9.182,9.182,0,0,0,23.4,6.551,9.167,9.167,0,0,0,29.477,0a29.982,29.982,0,0,1,.275,4,29.7,29.7,0,0,1-11.776,23.7,29.7,29.7,0,0,1,11.776,23.7,29.617,29.617,0,0,1-6.006,17.923,9.168,9.168,0,0,0-8.812-11.747Z" transform="translate(77.16 25.869)" fill="#5e2568"/>
    <circle id="Ellipse_5" data-name="Ellipse 5" cx="6.198" cy="6.198" r="6.198" transform="translate(93.248 16.099) rotate(13.283)" fill="#5e2568"/>
    <g id="Group_26" data-name="Group 26" transform="translate(0 0)">
      <path id="Path_23" data-name="Path 23" d="M6.311,0a9.2,9.2,0,0,0-.289,2.251,9.214,9.214,0,0,0,9.215,9.214,9.162,9.162,0,0,0,4.132-.987A13,13,0,0,0,29.752,31.331v1.992A35.742,35.742,0,0,0,10.032,40.58,29.727,29.727,0,0,1,6.311,0Z" transform="translate(0 11.442)" fill="#5e2568"/>
      <path id="Path_24" data-name="Path 24" d="M15.866,16.733a12.937,12.937,0,0,0-6.745,1.9,9.161,9.161,0,0,0,1.444-4.938A9.214,9.214,0,0,0,1.351,4.479,9.239,9.239,0,0,0,0,4.589,29.746,29.746,0,0,1,45.619,29.753c0,.039,0,.078,0,.118H28.88c0-.04.006-.078.006-.118A13.02,13.02,0,0,0,15.866,16.733Z" transform="translate(13.886 0)" fill="#5e2568"/>
    </g>
    <circle id="Ellipse_6" data-name="Ellipse 6" cx="6.198" cy="6.198" r="6.198" transform="translate(87.429 85.237) rotate(13.282)" fill="#5e2568"/>
    <ellipse id="Ellipse_7" data-name="Ellipse 7" cx="6.198" cy="6.198" rx="6.198" ry="6.198" transform="translate(15.237 4.928) rotate(45)" fill="#5e2568"/>
    <path id="Path_25" data-name="Path 25" d="M11.7,5.968A29.593,29.593,0,0,1,29.565,0c.063,0,.125,0,.188.005V16.583A13.028,13.028,0,1,0,42.781,29.611H64.132A13.008,13.008,0,0,0,83.965,40.705,9.16,9.16,0,0,0,94.408,53.846a29.734,29.734,0,0,1-40.952-6.258A29.749,29.749,0,1,1,11.7,5.968Z" transform="translate(0 47.667)" fill="#5e2568"/>
    <path id="Path_26" data-name="Path 26" d="M0,11.758l.014.018A29.733,29.733,0,0,1,30.643.819a9.167,9.167,0,0,0-4.417,16.152A13.013,13.013,0,0,0,10.69,29.753H0Z" transform="translate(53.442 0.118)" fill="#5e2568"/>
  </g>
</svg>
