<svg xmlns="http://www.w3.org/2000/svg" width="18.829" height="15.063" viewBox="0 0 18.829 15.063">
  <path id="email" d="M18.946,4H3.883A1.88,1.88,0,0,0,2.009,5.883L2,17.18a1.888,1.888,0,0,0,1.883,1.883H18.946a1.888,1.888,0,0,0,1.883-1.883V5.883A1.888,1.888,0,0,0,18.946,4Zm0,3.766-7.532,4.707L3.883,7.766V5.883l7.532,4.707,7.532-4.707Z" transform="translate(-2 -4)" fill="#5d2468"/>
</svg>
